id,slot1,slot2,slot3,slot4,slot5,name,grade
1501,0,0,0,0,0,駆逐イ級,
1502,0,0,0,0,0,駆逐ロ級,
1503,0,0,0,0,0,駆逐ハ級,
1504,0,0,0,0,0,駆逐ニ級,
1505,1,1,0,0,0,軽巡ホ級,
1506,1,1,0,0,0,軽巡ヘ級,
1507,2,2,2,0,0,軽巡ト級,
1508,2,2,2,0,0,雷巡チ級,
1509,3,3,3,0,0,重巡リ級,
1510,18,18,18,0,0,軽母ヌ級,
1511,3,3,3,0,0,戦艦ル級,
1512,27,27,27,0,0,空母ヲ級,
1513,0,0,0,0,0,輸送ワ級,
1514,0,0,0,0,0,駆逐イ級,elite
1515,0,0,0,0,0,駆逐ロ級,elite
1516,0,0,0,0,0,駆逐ハ級,elite
1517,0,0,0,0,0,駆逐ニ級,elite
1518,1,1,0,0,0,軽巡ホ級,elite
1519,1,1,0,0,0,軽巡ヘ級,elite
1520,2,2,2,0,0,軽巡ト級,elite
1521,2,2,2,0,0,雷巡チ級,elite
1522,3,3,3,3,0,重巡リ級,elite
1523,24,24,24,0,0,軽母ヌ級,elite
1524,3,3,3,3,0,戦艦ル級,elite
1525,30,30,30,0,0,空母ヲ級,elite
1526,0,0,0,0,0,輸送ワ級,elite
1527,4,4,4,4,0,重巡リ級,flagship
1528,32,32,32,0,0,空母ヲ級,flagship
1529,5,5,5,5,0,戦艦ル級,flagship
1530,0,0,0,0,0,潜水カ級,
1531,0,0,0,0,0,潜水ヨ級,
1532,0,0,0,0,0,潜水カ級,elite
1533,0,0,0,0,0,潜水ヨ級,elite
1534,0,0,0,0,0,潜水カ級,flagship
1535,0,0,0,0,0,潜水ヨ級,flagship
1536,30,30,30,0,0,浮遊要塞,
1537,30,30,30,0,0,浮遊要塞,下向き
1538,30,30,30,0,0,浮遊要塞,上向き
1539,60,60,60,0,0,泊地棲鬼,
1540,60,60,60,0,0,泊地棲姫,
1541,4,4,4,4,0,戦艦タ級,
1542,4,4,4,4,0,戦艦タ級,elite
1543,4,4,4,4,0,戦艦タ級,flagship
1544,80,80,0,0,0,装甲空母鬼,
1545,96,96,0,0,0,装甲空母姫,
1546,0,0,50,0,0,南方棲鬼,
1547,0,70,70,0,0,南方棲戦鬼,
1548,0,0,90,0,0,南方棲戦姫,
1549,0,35,35,0,0,護衛要塞,
1550,0,35,35,0,0,護衛要塞,下向き
1551,0,35,35,0,0,護衛要塞,上向き
1552,0,0,0,0,0,駆逐ロ級,flagship
1553,0,0,0,0,0,駆逐ハ級,flagship
1554,2,2,2,2,0,軽巡ホ級,flagship
1555,2,2,2,2,0,軽巡ヘ級,flagship
1556,98,98,98,98,0,飛行場姫,
1557,0,0,0,0,0,戦艦棲姫,
1558,0,0,0,0,0,輸送ワ級,flagship
1559,1,1,1,0,0,雷巡チ級,flagship
1560,22,22,22,22,0,軽母ヌ級,flagship
1561,0,0,0,140,0,戦艦レ級,
1562,0,0,0,180,0,戦艦レ級,elite
1564,0,0,0,0,0,駆逐イ級,flagship
1565,36,36,36,36,0,空母ヲ級改,flagship
1566,4,4,4,4,0,重巡リ級改,flagship
1567,5,5,5,5,0,戦艦ル級改,flagship
1570,0,0,0,0,0,潜水ソ級,
1571,0,0,0,0,0,潜水ソ級,elite
1572,0,0,0,0,0,潜水ソ級,flagship
1573,80,80,80,80,0,港湾棲姫,
1574,90,90,90,90,0,離島棲鬼,
1575,0,0,0,0,0,駆逐イ級後期型,
1576,0,0,0,0,0,駆逐ロ級後期型,
1577,0,0,0,0,0,駆逐ハ級後期型,
1578,0,0,0,0,0,駆逐ニ級後期型,
1579,32,32,27,5,0,空母ヲ級,flagship白
1581,0,72,64,36,0,北方棲姫,AL
1582,0,72,80,40,0,北方棲姫,AL壊
1583,0,64,58,58,0,中間棲姫,
1584,0,84,96,0,0,中間棲姫,壊
1585,48,48,48,0,0,空母棲鬼,
1586,60,52,56,0,0,空母棲姫,
1587,0,72,64,36,0,北方棲姫,強
1588,0,72,72,40,0,北方棲姫,壊強
1589,0,64,48,36,0,北方棲姫,弱
1590,0,64,68,40,0,北方棲姫,壊弱
1591,0,0,3,3,0,軽巡ツ級,
1592,0,0,3,3,0,軽巡ツ級,elite
1594,0,0,0,4,0,重巡ネ級,
1595,0,0,0,4,0,重巡ネ級,elite
1597,0,0,0,0,0,駆逐棲姫,弱
1598,0,0,0,0,0,駆逐棲姫,強
1599,66,60,60,0,0,空母水鬼,弱
1600,66,60,60,0,0,空母水鬼,強
1601,0,0,0,3,0,軽巡棲鬼,
1602,0,0,0,3,0,軽巡棲鬼,壊
1603,0,0,0,6,0,戦艦水鬼,
1604,0,0,0,6,0,戦艦水鬼,壊
1605,0,0,90,90,0,港湾水鬼,弱
1606,0,0,108,108,0,港湾水鬼,強
1607,0,0,108,108,0,港湾水鬼,壊弱
1608,0,0,130,130,0,港湾水鬼,壊強
1609,0,0,0,120,0,泊地水鬼,弱
1610,0,0,0,140,0,泊地水鬼,強
1611,0,0,0,160,0,泊地水鬼,壊弱
1612,0,0,0,180,0,泊地水鬼,壊強
1613,0,0,0,180,0,港湾棲姫,壊
1614,32,32,27,5,0,空母ヲ級,flagship白赤
1615,32,32,27,5,0,空母ヲ級,flagship赤
1616,36,36,36,36,0,空母ヲ級改,flagship白
1617,36,36,36,36,0,空母ヲ級改,flagship白赤
1618,36,36,36,36,0,空母ヲ級改,flagship赤
1619,48,48,48,0,0,空母棲鬼,赤
1620,60,52,56,0,0,空母棲姫,赤
1621,0,0,0,0,0,駆逐イ級後期型,elite
1622,0,0,0,0,0,駆逐ロ級後期型,elite
1623,0,0,0,0,0,駆逐ハ級後期型,elite
1624,0,0,0,0,0,駆逐ニ級後期型,elite
1625,0,0,0,32,0,水母棲姫,丙
1626,0,0,0,64,0,水母棲姫,乙
1627,0,0,0,96,0,水母棲姫,甲
1628,0,0,0,0,0,防空棲姫,丙
1629,0,0,0,0,0,防空棲姫,乙
1630,0,0,0,0,0,防空棲姫,甲
1631,98,98,98,98,0,飛行場姫,丙
1632,98,98,98,98,0,飛行場姫,乙
1633,98,98,98,98,0,飛行場姫,甲
1634,90,90,90,90,0,離島棲鬼,丙
1635,90,90,90,90,0,離島棲鬼,乙
1636,90,90,90,90,0,離島棲鬼,甲
1637,0,0,0,0,0,PT小鬼群,丁
1638,0,0,0,0,0,PT小鬼群,丙
1639,0,0,0,0,0,PT小鬼群,乙
1640,0,0,0,0,0,PT小鬼群,甲
1641,0,0,0,3,0,軽巡棲姫,丙
1642,0,0,0,3,0,軽巡棲姫,乙
1643,0,0,0,3,0,軽巡棲姫,甲
1644,0,0,0,0,0,潜水棲姫,丙
1645,0,0,0,0,0,潜水棲姫,乙
1646,0,0,0,0,0,潜水棲姫,甲
1647,0,0,0,0,0,駆逐水鬼,丙
1648,0,0,0,0,0,駆逐水鬼,乙
1649,0,0,0,0,0,駆逐水鬼,甲
1650,12,12,8,4,0,飛行場姫,空襲丙
1651,16,16,12,4,0,飛行場姫,空襲乙
1652,24,24,16,8,0,飛行場姫,空襲甲
1653,12,12,8,4,0,集積地棲姫,丙
1654,16,16,12,4,0,集積地棲姫,乙
1655,24,24,16,8,0,集積地棲姫,甲
1656,16,16,12,4,0,集積地棲姫-壊,丙
1657,24,24,16,8,0,集積地棲姫-壊,乙
1658,32,32,24,8,0,集積地棲姫-壊,甲
1659,0,0,0,4,0,重巡棲姫,丙
1660,0,0,0,4,0,重巡棲姫,乙
1661,0,0,0,4,0,重巡棲姫,甲
1662,0,0,0,4,0,重巡棲姫,壊丙
1663,0,0,0,4,0,重巡棲姫,壊乙
1664,0,0,0,4,0,重巡棲姫,壊甲
1665,0,0,0,0,0,砲台小鬼,
1666,0,0,0,0,0,砲台小鬼,機銃
1667,0,0,0,0,0,砲台小鬼,CIC
1668,16,12,12,8,0,離島棲姫,空襲弱
1669,20,18,18,8,0,離島棲姫,空襲強
1671,0,0,32,32,0,離島棲姫,爆戦
1672,0,0,0,0,0,離島棲姫,砲撃
1673,0,0,0,0,0,駆逐古鬼,丙
1674,0,0,0,0,0,駆逐古鬼,乙
1675,0,0,0,0,0,駆逐古鬼,甲
1676,0,0,0,0,0,駆逐水鬼,鬼丙
1677,0,0,0,0,0,駆逐水鬼,鬼乙
1678,0,0,0,0,0,駆逐水鬼,鬼甲
1679,24,24,24,24,0,リコリス棲姫,丙
1680,30,30,30,30,0,リコリス棲姫,乙
1681,36,36,36,36,0,リコリス棲姫,甲
1682,24,24,24,24,0,リコリス棲姫,空襲弱
1683,30,30,30,30,0,リコリス棲姫,空襲強
1684,0,0,16,0,0,中枢棲姫,丙
1685,0,0,16,0,0,中枢棲姫,乙
1686,0,0,16,0,0,中枢棲姫,甲
1687,0,0,16,0,0,中枢棲姫-壊,丙
1688,0,0,16,0,0,中枢棲姫-壊,乙
1689,0,0,16,0,0,中枢棲姫-壊,甲
1690,0,0,0,0,0,駆逐古姫,丙
1691,0,0,0,0,0,駆逐古姫,乙
1692,0,0,0,0,0,駆逐古姫,甲
1693,0,0,0,0,0,潜水夏姫,丙
1694,0,0,0,0,0,潜水夏姫,乙
1695,0,0,0,0,0,潜水夏姫,甲
1696,0,0,0,0,0,戦艦夏姫,丙
1697,0,0,0,0,0,戦艦夏姫,乙
1698,0,0,0,0,0,戦艦夏姫,甲
1699,0,0,81,81,0,港湾夏姫,丙
1700,0,0,96,81,0,港湾夏姫,乙
1701,0,0,96,96,0,港湾夏姫,甲
1702,0,0,81,81,0,港湾夏姫-壊,丙
1703,0,0,96,81,0,港湾夏姫-壊,乙
1704,0,0,96,96,0,港湾夏姫-壊,甲
1705,0,0,0,4,0,重巡夏姫,丙
1706,0,0,0,4,0,重巡夏姫,乙
1707,0,0,0,4,0,重巡夏姫,甲
1708,0,0,12,14,0,水母水姫,丙
1709,0,0,24,28,0,水母水姫,乙
1710,0,0,36,42,0,水母水姫,甲
1711,23,22,22,23,0,深海海月姫,丙
1712,39,39,39,39,0,深海海月姫,乙
1713,48,48,48,36,0,深海海月姫,甲
1714,36,36,28,28,0,空母ヲ級改,flagship空襲弱
1715,36,36,32,32,0,空母ヲ級改,flagship空襲強
1716,0,0,0,128,0,深海双子棲姫,丙
1717,0,0,0,160,0,深海双子棲姫,乙
1718,0,0,0,192,0,深海双子棲姫,甲
1719,0,0,0,144,0,深海双子棲姫-壊,丙
1720,0,0,0,176,0,深海双子棲姫-壊,乙
1721,0,0,0,208,0,深海双子棲姫-壊,甲
1722,14,14,14,14,0,護衛棲姫,丙
1723,23,23,25,25,0,護衛棲姫,乙
1724,32,32,36,36,0,護衛棲姫,甲
1725,0,0,0,36,0,北端上陸姫,丙
1726,0,0,0,49,0,北端上陸姫,乙
1727,0,0,0,64,0,北端上陸姫,甲
1728,0,0,0,36,0,北方水姫,丙
1729,0,0,0,49,0,北方水姫,乙
1730,0,0,0,64,0,北方水姫,甲
1731,0,0,0,36,0,北方水姫-壊,丙
1732,0,0,0,49,0,北方水姫-壊,乙
1733,0,0,0,64,0,北方水姫-壊,甲
1734,22,22,22,22,0,軽母ヌ級改,elite
1735,26,24,24,22,0,軽母ヌ級改,flagship
1736,0,0,0,0,0,潜水新棲姫,丙
1737,0,0,0,0,0,潜水新棲姫,乙
1738,0,0,0,0,0,潜水新棲姫,甲
1739,0,0,0,0,0,駆逐ナ級,
1740,0,0,0,0,0,駆逐ナ級,elite
1741,0,0,0,0,0,駆逐ナ級,flagship
1742,0,0,0,0,0,駆逐ナ級後期型,
1743,0,0,0,0,0,駆逐ナ級後期型,elite
1744,0,0,0,0,0,駆逐ナ級後期型,flagship
1745,0,0,0,48,0,戦艦仏棲姫,丙
1746,0,0,0,64,0,戦艦仏棲姫,乙
1747,0,0,0,72,0,戦艦仏棲姫,甲
1748,0,0,0,64,0,戦艦仏棲姫-壊,丙
1749,0,0,0,72,0,戦艦仏棲姫-壊,乙
1750,0,0,0,81,0,戦艦仏棲姫-壊,甲
1751,64,56,54,0,0,空母夏鬼,
1752,72,72,63,0,0,空母夏姫,
1753,16,16,0,0,0,集積地夏姫,弱
1754,24,24,0,0,0,集積地夏姫,強
1755,0,0,0,60,0,欧州棲姫,丙
1756,0,0,0,120,0,欧州棲姫,乙
1757,0,0,0,180,0,欧州棲姫,甲
1758,0,0,0,120,0,欧州棲姫-壊,丙
1759,0,0,0,180,0,欧州棲姫-壊,乙
1760,0,0,0,198,0,欧州棲姫-壊,甲
1761,0,0,0,28,0,重巡ネ級,flagship
1762,26,23,23,0,0,軽母ヌ級,elite白
1763,32,29,29,0,0,軽母ヌ級,flagship白
1764,32,29,29,0,0,軽母ヌ級,flagship赤
1765,28,24,18,18,0,軽母ヌ級改,elite白
1766,28,28,20,20,0,軽母ヌ級改,flagship鳥赤
1767,0,0,64,0,0,海峡夜棲姫,丙
1768,0,0,72,0,0,海峡夜棲姫,乙
1769,0,0,81,0,0,海峡夜棲姫,甲
1770,0,0,120,0,0,海峡夜棲姫-壊,丙
1771,0,0,180,0,0,海峡夜棲姫-壊,乙
1772,0,0,198,0,0,海峡夜棲姫-壊,甲
1773,0,0,0,0,0,防空埋護姫,丙
1774,0,0,0,0,0,防空埋護姫,乙
1775,0,0,0,0,0,防空埋護姫,甲
1776,26,23,23,0,0,軽母ヌ級,elite鳥
1777,26,23,23,0,0,軽母ヌ級,elite黒
1778,28,24,18,18,0,軽母ヌ級改,elite黒
1779,28,28,20,20,0,軽母ヌ級改,flagship赤
1780,28,28,20,20,0,軽母ヌ級改,flagship黒
1781,60,52,56,30,0,空母棲姫,黒弱
1782,60,52,56,30,0,空母棲姫,黒強
1783,28,28,28,0,0,護衛棲水姫,丙
1784,42,36,34,0,0,護衛棲水姫,乙
1785,42,36,34,0,0,護衛棲水姫,甲
1786,28,28,28,0,0,護衛棲水姫-壊,丙
1787,42,36,34,0,0,護衛棲水姫-壊,乙
1788,42,36,34,0,0,護衛棲水姫-壊,甲
1789,0,0,0,0,0,潜水新棲姫,丁
1790,0,0,0,4,0,戦艦棲姫改,丙
1791,0,0,0,4,0,戦艦棲姫改,乙
1792,0,0,0,4,0,戦艦棲姫改,甲
1793,0,0,0,6,0,戦艦水鬼改,丙
1794,0,0,0,6,0,戦艦水鬼改,乙
1795,0,0,0,6,0,戦艦水鬼改,甲
1796,0,0,0,6,0,戦艦水鬼改-壊,丙
1797,0,0,0,6,0,戦艦水鬼改-壊,乙
1798,0,0,0,6,0,戦艦水鬼改-壊,甲
1799,40,36,36,26,0,深海鶴棲姫,丙
1800,40,36,36,26,0,深海鶴棲姫,乙
1801,40,36,36,26,0,深海鶴棲姫,甲
1802,69,46,46,46,0,深海鶴棲姫-壊,丙
1803,69,46,46,46,0,深海鶴棲姫-壊,乙
1804,69,46,46,46,0,深海鶴棲姫-壊,甲
1805,0,0,0,0,0,潜水新棲姫 バカンスmode,丁
1806,0,0,0,0,0,潜水新棲姫 バカンスmode,丙
1807,0,0,0,0,0,潜水新棲姫 バカンスmode,乙
1808,0,0,0,0,0,潜水新棲姫 バカンスmode,甲
1809,0,0,0,64,0,集積地棲姫 バカンスmode,丙
1810,0,0,0,81,0,集積地棲姫 バカンスmode,乙
1811,0,0,0,96,0,集積地棲姫 バカンスmode,甲
1812,0,0,0,0,0,集積地棲姫 バカンスmode-壊,丙
1813,0,0,0,0,0,集積地棲姫 バカンスmode-壊,乙
1814,0,0,0,0,0,集積地棲姫 バカンスmode-壊,甲
1815,0,0,0,124,0,泊地水鬼 バカンスmode,丙
1816,0,0,0,144,0,泊地水鬼 バカンスmode,乙
1817,0,0,0,188,0,泊地水鬼 バカンスmode,甲
1818,0,0,0,0,0,泊地水鬼 バカンスmode,壊丙
1819,0,0,0,0,0,泊地水鬼 バカンスmode,壊乙
1820,0,0,0,0,0,泊地水鬼 バカンスmode,壊甲
1821,52,44,0,0,0,護衛独還姫,丙
1822,72,50,0,0,0,護衛独還姫,乙
1823,92,56,0,0,0,護衛独還姫,甲
1824,72,50,0,0,0,護衛独還姫-壊,丙
1825,92,56,0,0,0,護衛独還姫-壊,乙
1826,98,80,0,0,0,護衛独還姫-壊,甲
1827,0,0,0,0,0,船渠棲姫,丙
1828,0,0,0,0,0,船渠棲姫,乙
1829,0,0,0,0,0,船渠棲姫,甲
1830,0,0,0,0,0,船渠棲姫-壊,丙
1831,0,0,0,0,0,船渠棲姫-壊,乙
1832,0,0,0,0,0,船渠棲姫-壊,甲
1834,0,0,0,64,0,戦艦仏棲姫 バカンスmode,丙
1835,0,0,0,72,0,戦艦仏棲姫 バカンスmode,乙
1836,0,0,0,81,0,戦艦仏棲姫 バカンスmode,甲
1837,0,0,0,72,0,戦艦仏棲姫-壊 バカンスmode,丙
1838,0,0,0,81,0,戦艦仏棲姫-壊 バカンスmode,乙
1839,0,0,0,96,0,戦艦仏棲姫-壊 バカンスmode,甲
1840,0,0,0,25,0,欧州水姫,丙
1841,0,0,0,36,0,欧州水姫,乙
1842,0,0,0,64,0,欧州水姫,甲
1843,0,0,0,36,0,欧州水姫-壊,丙
1844,0,0,0,49,0,欧州水姫-壊,乙
1845,0,0,0,81,0,欧州水姫-壊,甲
1846,0,0,0,0,0,深海雨雲姫,丙
1847,0,0,0,0,0,深海雨雲姫,乙
1848,0,0,0,0,0,深海雨雲姫,甲
1849,0,0,0,0,0,深海雨雲姫-壊,丙
1850,0,0,0,0,0,深海雨雲姫-壊,乙
1851,0,0,0,0,0,深海雨雲姫-壊,甲
1852,0,0,0,32,0,深海日棲姫,丙
1853,0,0,0,64,0,深海日棲姫,乙
1854,0,0,0,96,0,深海日棲姫,甲
1855,0,0,0,32,0,深海日棲姫-壊,丙
1856,0,0,0,64,0,深海日棲姫-壊,乙
1857,0,0,0,96,0,深海日棲姫-壊,甲
1858,0,0,0,0,0,駆逐ニ級改,
1859,0,0,0,0,0,駆逐ニ級改後期型,
1860,0,0,0,0,0,駆逐ニ級改後期型,elite
1861,0,0,0,0,0,駆逐ニ級改後期型,flagship
1862,0,0,3,3,0,軽巡ツ級,flagship
1863,0,0,0,4,0,重巡棲姫,青
1864,0,0,0,4,0,重巡棲姫,青壊
1865,0,0,0,50,0,北方棲妹,丙
1866,0,0,0,70,0,北方棲妹,乙
1867,0,0,0,90,0,北方棲妹,甲
1868,0,0,0,80,0,北方棲妹-壊,丙
1869,0,0,0,100,0,北方棲妹-壊,乙
1870,0,0,0,120,0,北方棲妹-壊,甲
1871,0,0,0,0,0,太平洋深海棲姫,丙
1872,0,0,0,0,0,太平洋深海棲姫,乙
1873,0,0,0,0,0,太平洋深海棲姫,甲
1874,0,0,0,0,0,太平洋深海棲姫-壊,丙
1875,0,0,0,0,0,太平洋深海棲姫-壊,乙
1876,0,0,0,0,0,太平洋深海棲姫-壊,甲
1877,0,0,0,0,0,深海地中海棲姫,丙
1878,0,0,0,0,0,深海地中海棲姫,乙
1879,0,0,0,0,0,深海地中海棲姫,甲
1880,0,0,0,0,0,深海地中海棲姫-壊,丙
1881,0,0,0,0,0,深海地中海棲姫-壊,乙
1882,0,0,0,0,0,深海地中海棲姫-壊,甲
1883,0,0,0,0,0,アンツィオ沖棲姫,丙
1884,0,0,0,0,0,アンツィオ沖棲姫,乙
1885,0,0,0,0,0,アンツィオ沖棲姫,甲
1886,0,0,0,0,0,アンツィオ沖棲姫-壊,丙
1887,0,0,0,0,0,アンツィオ沖棲姫-壊,乙
1888,0,0,0,0,0,アンツィオ沖棲姫-壊,甲
1889,9,9,12,0,0,飛行場姫,偵察丙
1890,9,9,12,12,0,飛行場姫,偵察乙
1891,9,9,18,12,0,飛行場姫,偵察甲
1892,18,12,6,0,0,飛行場姫,重爆丙
1893,18,12,12,6,0,飛行場姫,重爆乙
1894,36,18,12,6,0,飛行場姫,重爆甲
1895,0,0,0,4,0,重巡ネ級改,丙
1896,0,0,0,4,0,重巡ネ級改,乙
1897,0,0,0,4,0,重巡ネ級改,甲
1898,0,0,0,6,0,バタビア沖棲姫,丙
1899,0,0,0,6,0,バタビア沖棲姫,乙
1900,0,0,0,6,0,バタビア沖棲姫,甲
1901,0,0,0,6,0,バタビア沖棲姫-壊,丙
1902,0,0,0,6,0,バタビア沖棲姫-壊,乙
1903,0,0,0,6,0,バタビア沖棲姫-壊,甲
1904,0,0,0,0,0,軽巡ヘ級改,flagship弱
1905,0,0,0,0,0,軽巡ヘ級改,flagship強
1906,56,52,48,30,0,空母棲姫改,丙
1907,58,52,50,30,0,空母棲姫改,乙
1908,60,52,56,30,0,空母棲姫改,甲
1909,0,0,0,0,0,防空巡棲姫,丙
1910,0,0,0,0,0,防空巡棲姫,乙
1911,0,0,0,0,0,防空巡棲姫,甲
1912,0,0,0,0,0,防空巡棲姫-壊,丙
1913,0,0,0,0,0,防空巡棲姫-壊,乙
1914,0,0,0,0,0,防空巡棲姫-壊,甲
1915,0,0,0,0,0,潜水棲姫改,丙
1916,0,0,0,0,0,潜水棲姫改,乙
1917,0,0,0,0,0,潜水棲姫改,甲
1918,0,0,0,0,0,潜水棲姫改-壊,丙
1919,0,0,0,0,0,潜水棲姫改-壊,乙
1920,0,0,0,0,0,潜水棲姫改-壊,甲
1921,9,9,9,9,0,集積地棲姫II,丙
1922,12,12,12,12,0,集積地棲姫II,乙
1923,22,22,22,22,0,集積地棲姫II,甲
1924,14,14,14,14,0,集積地棲姫II-壊,丙
1925,18,18,18,18,0,集積地棲姫II-壊,乙
1926,26,26,26,26,0,集積地棲姫II-壊,甲
1927,0,0,0,0,0,深海千島棲姫,丙
1928,0,0,0,0,0,深海千島棲姫,乙
1929,0,0,0,0,0,深海千島棲姫,甲
1930,0,0,0,0,0,深海千島棲姫-壊,丙
1931,0,0,0,0,0,深海千島棲姫-壊,乙
1932,0,0,0,0,0,深海千島棲姫-壊,甲
1933,0,0,48,0,0,集積地棲姫II 夏季上陸mode,丙
1934,0,0,64,0,0,集積地棲姫II 夏季上陸mode,乙
1935,0,0,88,0,0,集積地棲姫II 夏季上陸mode,甲
1936,0,0,64,0,0,集積地棲姫II 夏季上陸mode-壊,丙
1937,0,0,88,0,0,集積地棲姫II 夏季上陸mode-壊,乙
1938,0,0,98,0,0,集積地棲姫II 夏季上陸mode-壊,甲
1939,0,0,0,0,0,五島沖海底姫,丙
1940,0,0,0,0,0,五島沖海底姫,乙
1941,0,0,0,0,0,五島沖海底姫,甲
1942,0,0,0,0,0,五島沖海底姫-壊,丙
1943,0,0,0,0,0,五島沖海底姫-壊,乙
1944,0,0,0,0,0,五島沖海底姫-壊,甲
1945,0,0,0,0,0,駆逐林棲姫,丙
1946,0,0,0,0,0,駆逐林棲姫,乙
1947,0,0,0,0,0,駆逐林棲姫,甲
1948,0,0,0,0,0,駆逐林棲姫-壊,丙
1949,0,0,0,0,0,駆逐林棲姫-壊,乙
1950,0,0,0,0,0,駆逐林棲姫-壊,甲
1951,0,0,0,0,0,駆逐ナ級後期型II,elite
1952,0,0,0,0,0,駆逐ナ級後期型II,flagship
1953,0,0,0,0,0,重巡ネ級改 夏mode,丁
1954,0,0,0,0,0,重巡ネ級改 夏mode,丙
1955,0,0,0,0,0,重巡ネ級改 夏mode,乙
1956,0,0,0,0,0,重巡ネ級改II 夏mode,
1957,0,0,0,3,0,軽巡棲姫II,丁
1958,0,0,0,3,0,軽巡棲姫II,丙
1959,0,0,0,3,0,軽巡棲姫II,乙
1960,0,0,0,3,0,軽巡棲姫II,甲
1961,56,48,48,26,0,空母夏姫,丁
1962,58,50,52,28,0,空母夏姫,丙
1963,60,52,56,30,0,空母夏姫,乙
1964,68,66,66,0,0,空母夏姫II,
1965,0,0,0,0,0,南方戦艦新棲姫,丙
1966,0,0,0,0,0,南方戦艦新棲姫,乙
1967,0,0,0,0,0,南方戦艦新棲姫,甲
1968,0,0,0,0,0,南方戦艦新棲姫-壊,丙
1969,0,0,0,0,0,南方戦艦新棲姫-壊,乙
1970,0,0,0,0,0,南方戦艦新棲姫-壊,甲
1971,22,22,22,11,0,南太平洋空母棲姫,丙
1972,23,23,22,22,0,南太平洋空母棲姫,乙
1973,36,32,16,16,0,南太平洋空母棲姫,甲
1974,23,23,22,22,0,南太平洋空母棲姫-壊,丙
1975,36,32,16,16,0,南太平洋空母棲姫-壊,乙
1976,72,36,36,30,0,南太平洋空母棲姫-壊,甲
1977,0,0,0,0,0,潜水夏姫II,弱
1978,0,0,0,0,0,潜水夏姫II,強
1979,0,0,0,0,0,戦艦新棲姫,丙
1980,0,0,0,0,0,戦艦新棲姫,乙
1981,0,0,0,0,0,戦艦新棲姫,甲
1982,0,0,0,0,0,戦艦新棲姫-壊,丙
1983,0,0,0,0,0,戦艦新棲姫-壊,乙
1984,0,0,0,0,0,戦艦新棲姫-壊,甲
1985,0,0,0,0,0,潜水棲姫改II,丙
1986,0,0,0,0,0,潜水棲姫改II,乙
1987,0,0,0,0,0,潜水棲姫改II,甲
1988,0,0,0,0,0,深海竹棲姫,丙
1989,0,0,0,0,0,深海竹棲姫,乙
1990,0,0,0,0,0,深海竹棲姫,甲
1991,0,0,0,0,0,深海竹棲姫-壊,丙
1992,0,0,0,0,0,深海竹棲姫-壊,乙
1993,0,0,0,0,0,深海竹棲姫-壊,甲
1994,8,8,8,8,0,集積地棲姫II,丁
1995,10,10,10,10,0,集積地棲姫II-壊,丁
1996,0,0,0,0,0,潜水棲姫改II,丁
1997,48,36,35,35,0,空母棲姫改,丁
1998,0,0,0,3,0,軽巡ト級,flagship
1999,0,0,0,4,0,重巡リ級II,flagship
2000,0,0,0,6,0,ルンガ沖重巡棲姫,丙
2001,0,0,0,6,0,ルンガ沖重巡棲姫,乙
2002,0,0,0,6,0,ルンガ沖重巡棲姫,甲
2003,0,0,0,6,0,ルンガ沖重巡棲姫-壊,丙
2004,0,0,0,6,0,ルンガ沖重巡棲姫-壊,乙
2005,0,0,0,6,0,ルンガ沖重巡棲姫-壊,甲
2006,0,0,0,3,0,軽巡新棲姫,丙
2007,0,0,0,3,0,軽巡新棲姫,乙
2008,0,0,0,4,0,軽巡新棲姫,甲
2009,0,0,0,4,0,軽巡新棲姫-壊,丙
2010,0,0,0,6,0,軽巡新棲姫-壊,乙
2011,0,0,0,8,0,軽巡新棲姫-壊,甲
2012,0,0,0,2,0,軽巡ト級,elite強
2013,0,0,0,3,0,輸送ワ級II,elite
2014,0,0,0,4,0,輸送ワ級II,flagship
2015,0,0,0,32,0,集積地棲姫II バカンスmode,丁
2016,0,0,0,64,0,集積地棲姫II バカンスmode,丙
2017,0,0,0,88,0,集積地棲姫II バカンスmode,乙
2018,0,0,0,98,0,集積地棲姫II バカンスmode,甲
2019,0,0,0,0,0,集積地棲姫II バカンスmode-壊,丁
2020,0,0,0,0,0,集積地棲姫II バカンスmode-壊,丙
2021,0,0,0,0,0,集積地棲姫II バカンスmode-壊,乙
2022,0,0,0,0,0,集積地棲姫II バカンスmode-壊,甲
2023,0,0,81,81,0,港湾夏姫II,丙
2024,0,0,96,81,0,港湾夏姫II,乙
2025,0,0,96,96,0,港湾夏姫II,甲
2026,0,0,81,81,0,港湾夏姫II-壊,丙
2027,0,0,96,81,0,港湾夏姫II-壊,乙
2028,0,0,96,96,0,港湾夏姫II-壊,甲
2029,0,0,0,2,0,地中海弩級水姫,丙
2030,0,0,0,3,0,地中海弩級水姫,乙
2031,0,0,0,4,0,地中海弩級水姫,甲
2032,0,0,0,6,0,地中海弩級水姫-壊,丙
2033,0,0,0,12,0,地中海弩級水姫-壊,乙
2034,0,0,0,36,0,地中海弩級水姫-壊,甲
2035,0,0,0,4,0,深海地中海棲姫 バカンスmode,丙
2036,0,0,0,4,0,深海地中海棲姫 バカンスmode,乙
2037,0,0,0,4,0,深海地中海棲姫 バカンスmode,甲
2038,0,0,0,4,0,深海地中海棲姫 バカンスmode-壊,丙
2039,0,0,0,4,0,深海地中海棲姫 バカンスmode-壊,乙
2040,0,0,0,4,0,深海地中海棲姫 バカンスmode-壊,甲
2041,13,12,12,12,0,欧州装甲空母棲姫,丙
2042,14,14,14,13,0,欧州装甲空母棲姫,乙
2043,17,17,17,16,0,欧州装甲空母棲姫,甲
2044,14,14,14,13,0,欧州装甲空母棲姫-壊,丙
2045,17,17,17,16,0,欧州装甲空母棲姫-壊,乙
2046,21,20,20,20,0,欧州装甲空母棲姫-壊,甲
2047,12,12,12,12,0,飛行場姫,鳥弱
2048,16,16,16,16,0,飛行場姫,鳥強
2049,0,0,0,0,0,潜水新棲姫,
2050,0,0,0,0,0,駆逐ナ級IIe(量産型),
2051,0,0,0,0,0,駆逐ナ級IIe(量産型),elite
2052,0,0,0,0,0,駆逐ナ級IIe(量産型),flagship
2053,0,0,0,0,0,潜水鮫水鬼,丙
2054,0,0,0,0,0,潜水鮫水鬼,乙
2055,0,0,0,0,0,潜水鮫水鬼,甲
2056,0,0,0,0,0,潜水鮫水鬼-壊,丙
2057,0,0,0,0,0,潜水鮫水鬼-壊,乙
2058,0,0,0,0,0,潜水鮫水鬼-壊,甲
2059,11,16,2,2,0,ヒ船団棲姫,弱
2060,11,16,2,2,0,ヒ船団棲姫,強
2061,22,32,8,8,0,ヒ船団棲姫-壊,弱
2062,22,32,8,8,0,ヒ船団棲姫-壊,強
2063,0,0,0,0,0,深海梅棲姫,丙
2064,0,0,0,0,0,深海梅棲姫,乙
2065,0,0,0,0,0,深海梅棲姫,甲
2066,0,0,0,0,0,深海梅棲姫-壊,丙
2067,0,0,0,0,0,深海梅棲姫-壊,乙
2068,0,0,0,0,0,深海梅棲姫-壊,甲
2069,38,28,9,9,0,横浜岸壁棲姫,弱
2070,38,28,9,9,0,横浜岸壁棲姫,強
2071,48,36,12,12,0,横浜岸壁棲姫-壊,弱
2072,48,36,12,12,0,横浜岸壁棲姫-壊,強
2073,0,0,0,48,0,深海玉棲姫,弱
2074,0,0,0,72,0,深海玉棲姫,強
2075,0,0,0,0,0,深海玉棲姫-壊,弱
2076,0,0,0,0,0,深海玉棲姫-壊,強
2077,16,12,12,8,0,超重爆飛行場姫,丙
2078,24,20,14,8,0,超重爆飛行場姫,乙
2079,32,24,16,12,0,超重爆飛行場姫,甲
2080,0,0,0,0,0,防空埋護冬姫,弱
2081,0,0,0,0,0,防空埋護冬姫,強
2082,0,0,0,0,0,防空埋護冬姫-壊,弱
2083,0,0,0,0,0,防空埋護冬姫-壊,強
2084,0,0,24,24,0,集積地棲姫III,丙
2085,0,0,0,0,0,集積地棲姫III-壊,丙
2086,0,0,32,32,0,集積地棲姫III,乙
2087,0,0,0,0,0,集積地棲姫III-壊,乙
2088,0,0,52,52,0,集積地棲姫III,甲
2089,0,0,0,0,0,集積地棲姫III-壊,甲
2090,0,0,0,4,0,重巡ネ級改,丁
